11:16:39.680,9.324000358581543,0.0025899999141693114,52.24373248,6.85531481
11:16:39.811,9.82800006866455,0.360220002412796,52.24369958,6.85530081
11:16:40.810,9.755999565124512,3.0648000404834748,52.24367375,6.85527897
11:16:41.819,10.979999542236328,6.145299992322922,52.24364684,6.85525685
11:16:42.814,11.052000045776367,9.199949925899507,52.24362149,6.85523217
11:16:43.826,11.699999809265137,12.488949925899506,52.24359471,6.85520796
11:16:44.839,11.699999809265137,15.781199925899507,52.24356791,6.85519041
11:16:45.815,11.95199966430664,19.021519860744476,52.24354206,6.85517284
11:16:46.826,12.204000473022461,22.448809966802596,52.24351475,6.8551574
11:16:47.826,11.807999610900879,25.728809938192367,52.24348741,6.85514118
11:16:48.817,11.843999862670898,28.99248990035057,52.24346137,6.85512068
11:16:49.824,11.843999862670898,32.302229861974716,52.24343448,6.85510052
11:16:50.812,11.699999809265137,35.513229861974715,52.24340776,6.85507978
11:16:51.842,11.34000015258789,38.75772996020317,52.24338102,6.85505747
11:16:52.817,11.520000457763672,41.87453000664711,52.24335494,6.85503524
11:16:53.812,11.15999984741211,44.95902991175652,52.24332907,6.85501253
11:16:54.828,11.052000045776367,48.081219843864446,52.24330564,6.85498731
11:16:55.818,10.979999542236328,51.09766979670525,52.24328273,6.8549602
11:16:56.832,11.12399959564209,54.2340197095871,52.2432594,6.8549334
11:16:57.826,11.12399959564209,57.302389624357225,52.24323659,6.85490915
11:16:58.817,11.12399959564209,60.36766953921318,52.2432131,6.85488438
11:16:59.829,11.12399959564209,63.491659452438356,52.24318993,6.85486217
11:17:00.817,11.267999649047852,66.58722956562042,52.24316615,6.85484038
11:17:01.825,11.592000007629395,69.82976959443091,52.24314195,6.85481508
11:17:02.823,11.663999557495117,73.06652960395812,52.2431175,6.85478926
