11:28:44.181,17.13599967956543,0.009520000457763671,52.24312875,6.85470992
11:28:44.816,17.56800079345703,3.108320073127747,52.2431814,6.854718
11:28:45.826,19.007999420166016,8.462240285873413,52.24322384,6.85475154
11:28:46.814,19.583999633789062,13.815200342178345,52.24326352,6.85479245
11:28:47.821,19.799999237060547,19.348200342178345,52.24330603,6.85483511
11:28:48.821,20.304000854492188,24.98820020866394,52.24334804,6.85488183
11:28:49.818,20.95199966430664,30.790740379810334,52.24339501,6.85492575
11:28:50.816,20.483999252319336,36.469360436916354,52.24343746,6.8549704
11:28:51.821,20.591999053955078,42.21796022605896,52.24347993,6.85501633
11:28:52.814,20.77199935913086,47.94757020711899,52.24352623,6.85505663
11:28:53.809,20.736000061035156,53.67877043485642,52.24356967,6.85510267
