11:34:08.692,14.508001327514648,0.00403000020980835,52.2437307,6.85524137
11:34:08.806,15.696000099182129,0.5010700154304505,52.24368342,6.85521582
11:34:09.832,16.200000762939453,5.122570015430449,52.24363898,6.85518713
11:34:10.820,16.920000076293945,9.766169826984404,52.24359521,6.85515494
11:34:11.818,17.496000289916992,14.611589960098264,52.24355197,6.85512163
11:34:12.823,17.676000595092773,19.546139806747433,52.24350908,6.85509358
11:34:13.825,17.38800048828125,24.380969730377196,52.24346796,6.85506677
11:34:14.826,17.38800048828125,29.22062965393066,52.24342843,6.85503668
11:34:15.817,17.243999481201172,33.967519616127014,52.24338894,6.85500676
11:34:16.831,15.408000946044922,38.30743982887268,52.24335373,6.85497952
11:34:17.809,11.303999900817871,41.378359931468964,52.24333031,6.85495407
11:34:18.818,9.684000015258789,44.09525998926163,52.24331982,6.85491812
11:34:19.818,10.368000030517578,46.96950010347366,52.24333157,6.85486768
11:34:20.815,11.15999984741211,50.060200008392336,52.24334595,6.85481364
11:34:21.848,11.447999954223633,53.345140077352525,52.24336623,6.85475944
11:34:22.821,9.395999908447266,55.88727997517586,52.24338568,6.85471658
11:34:23.825,4.104000091552734,57.03183996081352,52.24339859,6.85469516
