12:35:25.750,11.663999557495117,0.003240000009536743,52.24311617,6.85472736
12:35:26.586,11.663999557495117,2.7151200079917905,52.24314177,6.85474759
12:35:27.596,11.736000061035156,6.010979998350144,52.24316648,6.85477021
12:35:28.590,11.807999610900879,9.271299969911576,52.24318943,6.8547943
12:35:29.598,11.772000312805176,12.564189950704575,52.24321594,6.85481356
12:35:30.612,12.131999969482422,15.988109834432603,52.24324373,6.85483235
12:35:31.596,11.772000312805176,19.199249815702437,52.24327209,6.85485066
12:35:32.596,11.663999557495117,22.43924982523918,52.24330061,6.85486872
12:35:33.580,11.37600040435791,25.548689909696577,52.24332774,6.85488633
12:35:34.602,11.592000007629395,28.83952993893623,52.24335358,6.85490657
12:35:35.586,11.699999809265137,32.03427993893623,52.24337954,6.8549282
12:35:36.578,11.843999862670898,35.30453990101814,52.24340549,6.85495084
12:35:37.590,11.628000259399414,38.570069920301435,52.24343104,6.85497374
12:35:38.596,11.628000259399414,41.81944993948936,52.24345557,6.8549979
12:35:39.601,11.520000457763672,45.035449987411496,52.24347955,6.85502334
12:35:40.624,11.34000015258789,48.25790008497238,52.2435029,6.85504745
12:35:41.598,11.196000099182129,51.28703998279571,52.24352481,6.85507202
