12:40:01.630,14.472000122070312,0.004019999980926513,52.24310811,6.85464435
12:40:02.581,14.580000877380371,3.8596201815605164,52.24314168,6.85467327
12:40:03.606,14.724000930786133,8.047780337810517,52.24317356,6.8547059
12:40:04.604,14.472000122070312,12.063760318756103,52.2432041,6.85473722
12:40:05.592,14.831999778747559,16.134320205688475,52.24323423,6.8547701
12:40:06.590,14.687999725341797,20.20208012962341,52.24326307,6.85480549
12:40:07.585,14.255999565124512,24.146240167617798,52.24329262,6.8548371
12:40:08.597,14.36400032043457,28.18412017726898,52.24332382,6.85486683
12:40:09.592,14.291999816894531,32.13427020573616,52.24335499,6.85489741
12:40:10.588,14.291999816894531,36.088390234231944,52.24338582,6.85492702
12:40:11.589,14.291999816894531,40.06236026287078,52.24341598,6.8549558
12:40:12.590,14.291999816894531,44.04030029153823,52.24344524,6.85498635
12:40:13.588,14.36400032043457,48.0223203010559,52.24347487,6.85501597
