12:50:00.008,9.755999565124512,0.0027100000381469727,52.24319189,6.85479609
12:50:00.602,9.468000411987305,1.5649300680160523,52.24321228,6.85481967
12:50:01.609,9.899999618530273,4.339680068016053,52.24323431,6.85484223
12:50:02.589,11.411999702453613,7.443110142707825,52.243259,6.85486491
12:50:03.595,10.727999687194824,10.440990161895751,52.24328322,6.8548874
12:50:04.590,11.34000015258789,13.578390256881713,52.24330844,6.85490529
12:50:05.587,11.628000259399414,16.792240275859832,52.24334402,6.85489731
