12:11:24.156,4.895999908447266,0.0013600000143051,52.24361145,6.85531134
12:11:24.689,7.056000232696533,1.0480000203847886,52.24359258,6.85530088
12:11:25.685,8.13599967956543,3.296700010895729,52.24357196,6.8552876
12:11:26.687,11.484000205993652,6.49627006828785,52.24354629,6.85525915
12:11:27.686,12.564000129699709,9.97929007780552,52.24351718,6.85522953
12:11:28.683,14.868000030517578,14.096900191903114,52.24348331,6.8551967
12:11:29.715,15.156000137329102,18.44162023127079,52.24344764,6.8551647
12:11:30.701,15.083999633789062,22.57296028769016,52.24341169,6.85513468
12:11:31.690,16.416000366210938,27.082800231099128,52.24337433,6.85509987
12:11:32.711,16.559999465942383,31.77940013372898,52.24333821,6.85506389
12:11:33.707,17.13599967956543,36.52036036169529,52.24330203,6.85502867
12:11:34.688,17.13599967956543,41.18992058622837,52.24326717,6.85499065
