11:51:13.595,0.0,0.0,52.24311838,6.85477479
11:51:13.705,0.0,0.0,52.24311545,6.85477225
11:51:14.695,0.0,0.0,52.24311583,6.85477311
11:51:15.705,4.464000225067139,1.251160009622574,52.24312651,6.85478467
11:51:16.729,7.271999835968018,3.319639990091324,52.24314596,6.85479825
11:51:17.715,10.33199977874756,6.1465898773670204,52.24317139,6.85482133
11:51:18.695,12.456000328063965,9.5408499147892,52.24320105,6.85485007
11:51:19.693,13.932000160217283,13.406979800462723,52.24323267,6.85488253
11:51:20.702,13.932000160217283,17.307939685106277,52.24326264,6.85491546
11:51:21.703,13.644000053405762,21.10172964692116,52.24329218,6.85494727
11:51:22.695,13.248000144958496,24.7522897131443,52.2433192,6.85498142
11:51:23.712,13.355999946594238,28.52535975193977,52.24334913,6.85500816
11:51:24.702,15.3360013961792,32.74275997853279,52.24337066,6.85497381
11:51:25.698,11.95199966430664,36.046159912109374,52.24338668,6.85492919
11:51:26.698,12.708000183105469,39.579689883470536,52.24340327,6.85488444
11:51:27.693,13.211999893188477,43.23133995938301,52.24341923,6.85483722
