11:58:36.980,14.9399995803833,0.0041500000953674,52.24312917,6.85482924
11:58:37.690,14.79599952697754,2.922250094890594,52.2431619,6.8548661
11:58:38.683,15.588000297546388,7.234930018901824,52.24319476,6.85490365
11:58:39.689,16.488000869750977,11.828669942378998,52.24322802,6.85494372
11:58:40.688,15.984000205993652,16.273109999656675,52.24326171,6.85498004
11:58:41.697,17.711999893188477,21.23247007656097,52.24329639,6.85502327
11:58:42.692,14.003999710083008,25.103020180940625,52.24333354,6.85503959
11:58:43.708,19.224000930786133,30.52846033596992,52.24336517,6.85496758
11:58:44.707,14.724000930786133,34.61437048840522,52.24338091,6.85492214
11:58:45.696,16.128000259399414,39.045090507268895,52.24340344,6.85486377
