12:03:21.015,12.67199993133545,0.007039999961853,52.24355441,6.85523107
12:03:21.707,14.580000877380373,2.8096401319503785,52.24351978,6.85520517
12:03:22.705,16.200000762939453,7.300640131950378,52.24348549,6.8551654
12:03:23.691,16.631999969482422,11.855960019111633,52.24344949,6.8551243
12:03:24.714,16.775999069213867,16.627799862861632,52.24341123,6.85508732
12:03:25.694,16.128000259399414,21.01819988155365,52.24337773,6.85504257
12:03:26.704,14.472000122070312,25.0743798623085,52.2433757,6.85497813
12:03:27.715,15.191999435424805,29.34079965019226,52.24338796,6.85491553
