12:02:22.631,16.308000564575195,0.0090600004196167,52.24365494,6.85533873
12:02:22.699,16.200000762939453,0.3105600004196167,52.24360812,6.85533556
12:02:23.703,15.732000350952148,4.711149885177613,52.2435652,6.85531572
12:02:24.700,17.243999481201172,9.477199847221376,52.24352114,6.8552858
12:02:25.689,18.143999099731445,14.46175980949402,52.24347791,6.8552143
12:02:26.695,18.43199920654297,19.61759969425201,52.24343708,6.85517415
12:02:27.708,18.71999931335449,24.879999501228333,52.24339537,6.85512519
12:02:28.705,17.639999389648438,29.765299596309664,52.24335709,6.85508614
12:02:29.691,16.055999755859375,34.16285963392258,52.24334616,6.8550169
12:02:30.697,15.84000015258789,38.58925972986221,52.2433622,6.85493951
