15:19:39.759,18.827999114990234,0.005230000019073486,52.24360144,6.85518524
15:19:40.151,18.86400032043457,2.054069910526276,52.24356418,6.8551437
15:19:41.167,16.812000274658203,6.808129988193512,52.24352936,6.85510926
15:19:42.162,19.29599952697754,12.13597012090683,52.24348945,6.85505289
15:19:43.156,19.6200008392334,17.55871993112564,52.2434464,6.85502312
15:19:44.170,18.68400001525879,22.821379989147186,52.24340441,6.85498969
15:19:45.159,19.260000228881836,28.107179894924165,52.24336123,6.85495592
15:19:46.155,16.236000061035156,32.608160123348235,52.24333254,6.85490911
15:19:47.181,18.215999603271484,37.78960006475448,52.24329655,6.85486543
15:19:48.169,18.18000030517578,42.77900025320053,52.24325753,6.85482681
