15:18:29.152,16.631999969482422,0.004619999885559082,52.24359686,6.85520325
15:18:29.166,15.047999382019043,0.05895999765396119,52.24356433,6.85517345
15:18:30.146,18.395999908447266,5.071870128631591,52.24352744,6.85508408
15:18:31.169,18.288000106811523,10.268710050582886,52.24348088,6.85505564
15:18:32.161,19.72800064086914,15.704870069503784,52.24343724,6.85501685
15:18:33.156,20.08799934387207,21.25696999359131,52.24339377,6.85496421
15:18:34.160,20.34000015258789,26.92957008934021,52.24335521,6.8549228
15:18:35.175,20.08799934387207,32.59327001190186,52.24331005,6.85488189
15:18:36.166,20.483999252319336,38.23775006866455,52.24326242,6.85484346
15:18:37.178,19.908000946044922,43.8285802807808,52.24322065,6.85480231
