15:21:32.019,9.0,0.0025,52.24296446,6.85438056
15:21:32.175,9.324000358581543,0.4065399866104126,52.24297083,6.85441853
15:21:33.152,8.279999732971191,2.655939939975738,52.24298009,6.85445443
15:21:34.160,9.251999855041504,5.243929872751236,52.2429979,6.85448408
15:21:35.167,9.86400032043457,8.005849882364274,52.24301833,6.85451066
15:21:36.186,10.079999923706055,10.859049833774568,52.24304172,6.85453097
15:21:37.158,10.008000373840332,13.561209805965426,52.24306343,6.85455138
15:21:38.163,10.008000373840332,16.355109777212146,52.24308497,6.85457247
15:21:39.171,9.791999816894531,19.096869806051256,52.24310633,6.85459302
15:21:40.158,9.755999565124512,21.771639843702317,52.24312867,6.85461258
15:21:41.172,9.935999870300293,24.57027983403206,52.24315081,6.85463126
15:21:42.167,10.368000030517578,27.435879947900773,52.24317358,6.85465095
15:21:43.159,9.935999870300293,30.173799938440325,52.2431951,6.85467101
15:21:44.173,9.972000122070312,32.98257991909981,52.24321641,6.85469056
15:21:45.165,9.503999710083008,35.601460023164755,52.243235,6.85471224
15:21:46.158,9.539999961853027,38.23291011786461,52.24325416,6.85473543
15:21:47.161,9.64799976348877,40.91827018475533,52.24327396,6.85475237
15:21:48.159,9.432000160217285,43.53303007054329,52.24329322,6.85476869
15:21:49.160,9.395999908447266,46.145639965534215,52.24331162,6.85478863
15:21:50.159,9.359999656677246,48.74043987035752,52.24333059,6.85480911
15:21:51.164,9.288000106811523,51.338499793529515,52.24334906,6.85483024
15:21:52.161,7.883999824523926,53.51973985052109,52.24336539,6.85484314
15:21:53.167,9.359999656677246,56.13533975458145,52.24337627,6.85482137
15:21:54.175,7.6680006980896,58.28450987005234,52.24338601,6.85479285
15:21:55.164,9.144000053405762,60.791489832401275,52.24339933,6.85476518
15:21:56.163,9.791999816894531,63.511489861011505,52.24341351,6.85473302
15:21:57.159,9.86400032043457,66.23778987050056,52.24342652,6.85469968
