15:07:30.642,12.131999969482422,0.0,52.24295783,6.85443233
15:07:31.155,11.196000099182129,1.5985399460792542,52.24297166,6.85447365
15:07:32.157,11.232000350952148,4.724779831409455,52.24299136,6.85450596
15:07:33.175,14.255999565124512,8.756059870243073,52.24302111,6.85453525
15:07:34.163,15.01200008392334,12.87601994562149,52.24305406,6.85456442
15:07:35.163,15.191999435424805,17.10023973560333,52.24308717,6.85459406
15:07:36.173,15.767999649047852,21.519659851074216,52.24312028,6.85462902
15:07:37.160,15.65999984741211,25.80875975704193,52.24315233,6.85466456
15:07:38.166,16.27199935913086,30.36039973783493,52.24318667,6.85469919
15:07:39.166,16.055999755859375,34.82485977602005,52.24322116,6.85473368
15:07:40.164,15.732000350952148,39.18174966192245,52.2432559,6.85476581
15:07:41.159,15.227999687194824,43.39059968090057,52.24328897,6.85479588
15:07:42.168,14.65200138092041,47.497229854106905,52.24332035,6.85482428
15:07:43.157,13.319999694824219,51.1565299012661,52.24335207,6.85483725
15:07:44.184,14.14799976348877,55.18870996975899,52.2433793,6.85480157
15:07:45.164,13.895999908447266,58.97536986684799,52.24340296,6.85475684
15:07:46.152,12.63599967956543,62.43973985743523,52.24342394,6.85471604
