15:09:03.967,11.843999862670898,0.0032899999618530274,52.24293887,6.85448262
15:09:04.163,12.131999969482422,0.6638099775314331,52.24296993,6.85448688
15:09:05.185,13.284000396728516,4.434990036010742,52.24300035,6.85450941
15:09:06.168,13.355999946594238,8.085630073547364,52.24303009,6.85453386
15:09:07.170,13.175999641418457,11.756610159635546,52.24305861,6.85455953
15:09:08.163,16.200000762939453,16.256610159635546,52.24309629,6.85458899
15:09:09.155,15.84000015258789,20.581810253381732,52.24313374,6.8546178
15:09:10.184,16.70400047302246,25.365650115728382,52.24317257,6.85465069
15:09:11.161,16.739999771118164,29.904050208806996,52.24321213,6.85468223
15:09:12.175,15.588000297546387,34.29900013136864,52.24324774,6.85471301
15:09:13.171,15.947999000549316,38.70684996056557,52.24328229,6.85474493
15:09:14.167,15.911999702453613,43.10917003655434,52.24331631,6.85477759
15:09:15.169,15.263998985290527,47.36188980698586,52.2433492,6.85480606
15:09:16.162,14.831999778747559,51.448929693460464,52.24336349,6.85486483
15:09:17.166,13.140000343322754,55.117179789304735,52.24335448,6.85492302
