15:16:23.439,15.191999435424805,0.00421999979019165,52.24290776,6.85450898
15:16:24.177,14.724000930786133,3.0267301125526425,52.24294737,6.85447718
15:16:25.163,15.191999435424805,7.18764990568161,52.24299331,6.85448137
15:16:26.172,16.45199966430664,11.803350079059602,52.24303864,6.85450544
15:16:27.170,17.74799919128418,16.71362990808487,52.24308213,6.85458679
15:16:28.151,19.583999633789062,22.05570996427536,52.24312298,6.85463684
15:16:29.159,20.195999145507812,27.710590098857878,52.24316685,6.85468435
15:16:30.170,20.591999053955078,33.493509886741634,52.24321155,6.85472359
15:16:31.165,20.304000854492188,39.11094975376129,52.24325647,6.85476506
15:16:32.159,19.763999938964844,44.56251952648162,52.24330055,6.85480158
15:16:33.156,19.224000930786133,49.88649967861175,52.24333948,6.85484054
15:16:34.161,15.191999435424805,54.12759946775436,52.24334834,6.85489747
15:16:35.168,15.01200008392334,58.32261954450607,52.24335772,6.85495755
