15:33:46.259,12.85200023651123,0.003569999933242798,52.24374031,6.85525495
15:33:47.104,12.312000274658203,2.890050064325332,52.24371073,6.85522615
15:33:48.120,13.644000053405762,6.744480025529862,52.24367937,6.85519176
15:33:49.096,14.32800006866455,10.628960044145584,52.24364754,6.8551574
15:33:50.098,15.047999382019043,14.813139872312547,52.24361153,6.85512662
15:33:51.103,15.515999794006348,19.148999814748766,52.24357552,6.8550987
15:33:52.093,14.868000030517578,23.237699928045274,52.24354004,6.85507339
15:33:53.115,15.01200008392334,27.495270005941393,52.24350477,6.85504776
15:33:54.098,14.399999618530273,31.431270005941393,52.2434717,6.85502225
15:33:55.104,14.14799976348877,35.3887800731659,52.24344077,6.85499444
15:33:56.099,13.571999549865723,39.136160054206854,52.24340415,6.85497633
15:33:57.096,13.319999694824219,42.82506010174752,52.24337546,6.85494234
15:33:58.105,9.251999855041504,45.41562003445626,52.24337357,6.85489743
15:33:59.097,9.720000267028809,48.09402008175851,52.24338213,6.85485178
15:34:00.100,10.260000228881836,50.95541998600961,52.24339184,6.854803
