15:36:56.918,13.428000450134277,0.01119000005722046,52.24294682,6.85447195
15:36:57.121,14.580000877380371,0.8373900389671326,52.24297378,6.85451597
15:36:58.105,14.43600082397461,4.775210263729095,52.24300313,6.85455308
15:36:59.100,15.300000190734863,9.008210263729094,52.2430388,6.85458639
15:37:00.098,15.300000190734863,13.249710263729094,52.24307744,6.85461208
15:37:01.101,16.163999557495117,17.753180034160614,52.24311647,6.85464468
15:37:02.106,17.459999084472656,22.62257993841171,52.24315535,6.85468264
15:37:03.092,17.892000198364258,27.52796973133087,52.2431953,6.85472247
15:37:04.116,18.215999603271484,32.72458967256546,52.24324378,6.85475445
15:37:05.123,17.964000701904297,37.73454944276809,52.24328582,6.85479241
15:37:06.107,17.496000289916992,42.516789574146266,52.24332404,6.85482794
15:37:07.103,14.112000465393066,46.42502965021133,52.24334799,6.85486961
15:37:08.093,11.15999984741211,49.494029555797574,52.24335002,6.85491749
15:37:09.087,10.619999885559082,52.42042960309982,52.24334908,6.85496353
