15:12:37.664,10.619999885559082,0.011800000190734863,52.24319035,6.85471031
15:12:37.936,12.239999771118164,0.9366000261306764,52.24321441,6.85473046
15:12:38.952,12.708000183105469,4.523079997062683,52.24323931,6.85475676
15:12:39.942,12.204000473022461,7.879180100917816,52.24326542,6.85477473
15:12:40.938,12.63599967956543,11.375140091419219,52.24329088,6.85479448
15:12:41.948,13.644000053405762,15.203040052890778,52.24332063,6.8548126
15:12:42.936,12.815999984741211,18.720319996356963,52.24334933,6.8548335
15:12:43.934,12.85200023651123,22.283179929733276,52.24337677,6.85485602
15:12:44.935,12.779999732971191,25.83317988204956,52.24340418,6.85487565
15:12:45.931,12.85200023651123,29.39246981549263,52.24343063,6.85489916
15:12:46.947,12.779999732971191,32.99571976709366,52.24345783,6.85492106
15:12:47.939,12.779999732971191,36.52441971969605,52.2434858,6.85494341
15:12:48.937,12.420000076293945,39.964069767236715,52.24351131,6.85496756
15:12:49.937,13.715999603271484,43.774069710016256,52.24353936,6.85499335
15:12:50.934,13.824000358581543,47.60254962444306,52.24356854,6.85502078
