15:31:52.414,19.04400062561035,0.005289999961853028,52.24308211,6.85457868
15:31:52.954,19.6560001373291,2.9591500205993655,52.24312354,6.85462098
15:31:53.946,19.836000442504883,8.419560247421265,52.24316711,6.85466503
15:31:54.957,19.511999130249023,13.899180324554443,52.24320844,6.85470197
15:31:55.950,20.77199935913086,19.623020305633545,52.24325603,6.85474408
15:31:56.943,20.483999252319336,25.273190362453462,52.24329823,6.85478517
15:31:57.940,19.6560001373291,30.716810400485993,52.24334125,6.85482748
15:31:58.943,12.347999572753906,34.15710046744347,52.24336636,6.85484638
15:31:59.948,9.935999870300293,36.93642045783997,52.2433824,6.85481926
15:32:00.940,13.607999801635742,40.678620429515846,52.24339526,6.85477399
15:32:01.941,14.076000213623047,44.588620515346534,52.24341664,6.85473256
