15:27:25.684,11.088000297546387,0.0030799999237060547,52.24307084,6.8546199
15:27:25.940,12.347999572753906,0.8880200171470641,52.24309727,6.85463936
15:27:26.955,11.447999954223633,4.118900084972381,52.24312209,6.85465756
15:27:27.935,11.880000114440918,7.343000038385391,52.24314693,6.85467619
15:27:28.947,12.276000022888184,10.797330125331879,52.24317262,6.85469599
15:27:29.954,12.239999771118164,14.221130221366883,52.24319952,6.85471669
15:27:30.949,11.95199966430664,17.524530154943466,52.24322556,6.85473973
15:27:31.934,12.312000274658203,20.893230230093003,52.24325188,6.85476618
15:27:32.943,12.312000274658203,24.3405903069973,52.2432781,6.85479121
15:27:33.951,12.239999771118164,27.76779040312767,52.24330496,6.85481524
15:27:34.938,12.312000274658203,31.14675047850609,52.24333042,6.85483937
15:27:35.954,11.303999900817871,34.340130585193634,52.24335278,6.85486097
15:27:36.954,7.595999717712402,36.44802048039436,52.2433674,6.85487616
15:27:37.949,7.199999809265137,38.438020480394364,52.24337468,6.85489766
15:27:38.940,7.452000141143799,40.489390414237974,52.24336906,6.85492273
15:27:39.945,9.144000053405762,43.042090375900266,52.24335611,6.85495343
15:27:40.946,10.043999671936035,45.83488033771515,52.24334292,6.85499005
