09:10:17.599,7.955999851226807,0.0022100000381469727,52.24356784,6.85508132
09:10:18.145,8.387999534606934,1.274389958381653,52.24354908,6.85506048
09:10:19.129,9.720000267028809,3.933890005350113,52.24352778,6.85504223
09:10:20.129,9.468000411987305,6.566520119905473,52.24350701,6.85502481
09:10:21.129,10.836000442504883,9.573510110378265,52.24348255,6.8550046
09:10:22.132,11.12399959564209,12.672780024290084,52.24345683,6.85498462
09:10:23.150,10.763999938964844,15.716600033998489,52.24343289,6.85496435
09:10:24.138,10.4399995803833,18.581800128221513,52.24341061,6.85494112
09:10:25.139,10.331999778747559,21.457540013551714,52.24338745,6.85492257
09:10:26.136,10.4399995803833,24.345940108537675,52.24336384,6.85490205
09:10:27.136,10.51200008392334,27.26594018483162,52.24333977,6.85488275
09:10:28.132,10.368000030517578,30.131540298700333,52.24331659,6.85486315
09:10:29.119,10.4399995803833,32.99674039292336,52.24329421,6.85484055
09:10:30.125,10.368000030517578,35.89402050805092,52.24327183,6.85481912
09:10:31.128,10.331999778747559,38.77550039315224,52.24324964,6.8548007
09:10:32.127,10.260000228881836,41.62265029788018,52.24322813,6.85478027
09:10:33.130,10.116000175476074,44.44389024043084,52.24320616,6.85476194
09:10:34.141,10.008000373840332,47.24891021156312,52.2431867,6.85473771
09:10:35.121,10.043999671936035,49.98590017414094,52.24316696,6.85471428
