09:32:05.050,6.335999965667725,0.001759999990463257,52.24297285,6.85445428
09:32:05.133,8.711999893188477,0.13486000418663024,52.24298942,6.85447368
09:32:06.128,10.656000137329102,3.0800600421428683,52.24300657,6.85450282
09:32:07.120,13.46399974822998,6.790140051603318,52.24303428,6.85453247
09:32:08.143,15.408000946044922,11.16858026623726,52.24306688,6.85456278
09:32:09.124,17.423999786376953,15.91662041592598,52.24310292,6.85459873
09:32:10.155,19.224000930786133,21.422160573244096,52.24314923,6.85463037
09:32:11.144,20.663999557495117,27.09328034710884,52.24319242,6.8546745
09:32:12.141,21.312000274658203,33.0014404232502,52.24323779,6.85472304
09:32:13.129,22.24799919128418,39.10728025364876,52.24328661,6.85477103
09:32:14.149,20.23200035095215,44.83968013691902,52.24333005,6.85481318
09:32:15.146,15.588000297546387,49.15236006093025,52.24335432,6.85486516
09:32:16.142,11.880000114440918,52.442460013389585,52.24334789,6.85491235
09:32:17.147,13.968000411987305,56.34186012840271,52.24332643,6.85495493
09:32:18.140,13.46399974822998,60.05568013787269,52.24330732,6.85500207
