10:32:13.149,10.907999992370605,0.0030299999713897705,52.24358276,6.85512905
10:32:13.573,10.800000190734863,1.2780299999713898,52.24355613,6.85511283
10:32:14.578,10.944000244140625,4.336269961595535,52.24353029,6.85509007
10:32:15.578,10.800000190734863,7.333269961595535,52.24350528,6.85506675
10:32:16.573,11.015999794006348,10.377969904661178,52.24348061,6.85504261
10:32:17.572,10.944000244140625,13.414929866552352,52.24345608,6.85502211
10:32:18.567,11.088000297546387,16.479529790639877,52.24343192,6.85500217
10:32:19.584,10.944000244140625,19.571209751844407,52.24340759,6.85498354
10:32:20.580,10.979999542236328,22.609009704351426,52.24338306,6.85496184
10:32:21.565,11.052000045776367,25.629889638662338,52.24335892,6.85493885
10:32:22.571,11.015999794006348,28.711309581041334,52.24333428,6.85491611
10:32:23.572,11.088000297546387,31.794389504671095,52.24330864,6.85489382
10:32:24.566,11.015999794006348,34.83602944779396,52.24328388,6.8548698
10:32:25.563,10.979999542236328,37.876879400253294,52.24326024,6.85484825
10:32:26.567,10.51200008392334,40.808559476852416,52.24323715,6.85482497
10:32:27.578,10.295999526977539,43.700019370794294,52.24321464,6.85480202
10:32:28.567,9.791999816894531,46.39009939908981,52.24319398,6.85478016
10:32:29.576,9.791999816894531,49.13457942795753,52.24317379,6.85475714
