10:46:44.090,20.08799934387207,0.005579999923706055,52.24359826,6.85514468
10:46:44.562,21.239999771118164,2.790380044937134,52.24354743,6.85510774
10:46:45.562,22.176000595092773,8.956539892196655,52.24349689,6.85506692
10:46:46.567,23.399999618530273,15.482539892196655,52.24344509,6.85501716
10:46:47.575,24.191999435424805,22.24957968091965,52.24339394,6.85496294
10:46:48.576,25.59600067138672,29.380909814834595,52.24334122,6.85490981
10:46:49.584,25.631999969482422,36.55074969959259,52.2432874,6.85485624
10:46:50.576,25.95599937438965,43.69585973739624,52.24322938,6.85479929
10:46:51.583,24.91200065612793,50.671219814300535,52.24317954,6.85473877
