10:41:31.125,20.736000061035156,0.011520000457763671,52.24307448,6.85457353
10:41:31.569,21.923999786376953,2.709390068054199,52.24311979,6.85462057
10:41:32.584,22.031999588012695,8.921189951896668,52.24316775,6.8546671
10:41:33.565,20.195999145507812,14.430210083007813,52.24320806,6.8547122
10:41:34.564,21.81599998474121,20.490210025787356,52.24325681,6.85476226
10:41:35.576,20.628000259399414,26.277510045051578,52.24329893,6.85480843
10:41:36.563,14.975998878479004,30.391749894142155,52.24332893,6.85484014
10:41:37.563,12.095999717712402,33.75174978923798,52.24335719,6.85483462
10:41:38.584,12.204000473022461,37.20615989613533,52.24337904,6.85480664
10:41:39.570,15.480001449584961,41.45026008439064,52.24340304,6.85475131
