10:54:15.498,19.04400062561035,0.005289999961853028,52.24308222,6.85457458
10:54:15.576,19.979999542236328,0.44374001502990723,52.24312546,6.85461543
10:54:16.567,20.628000259399414,6.133630033969879,52.24316767,6.85465532
10:54:17.586,20.8439998626709,12.02205999517441,52.24321237,6.85469937
10:54:18.572,20.988000869750977,17.776269919872284,52.24325403,6.85474618
10:54:19.582,19.763999938964844,23.315679688930512,52.24329282,6.85478984
10:54:20.570,16.559999465942383,27.869679594516754,52.24332655,6.85482217
10:54:21.577,12.67199993133545,31.4072795753479,52.24335607,6.85482347
10:54:22.577,11.303999900817871,34.55041968035698,52.24338251,6.85481391
10:54:23.579,13.46399974822998,38.29415968990326,52.24340024,6.85475066
