10:36:19.580,15.156000137329102,0.004210000038146973,52.24366955,6.85518998
10:36:19.581,15.732000350952148,0.008579999923706054,52.2436346,6.85516152
10:36:20.572,16.236000061035156,4.487010227203369,52.24359869,6.85513068
10:36:21.577,16.559999465942383,9.105410131454468,52.24356091,6.85510142
10:36:22.578,16.631999969482422,13.72541001701355,52.24352296,6.85507211
10:36:23.569,16.236000061035156,18.19933024406433,52.24348641,6.85504266
10:36:24.579,16.055999755859375,22.703930282592772,52.2434517,6.85501241
10:36:25.575,15.911999702453613,27.101830358505246,52.24341742,6.8549805
10:36:26.582,15.552000999450684,31.44775053119659,52.24338253,6.85495212
10:36:27.568,13.319999694824219,35.099650578260416,52.2433511,6.85493308
10:36:28.576,12.456000328063965,38.59079061675071,52.24332567,6.85494742
10:36:29.578,11.484000205993652,41.78398067402839,52.24330711,6.85497858
10:36:30.563,11.232000350952148,44.85718056130409,52.24329349,6.85501607
