10:37:22.315,14.975998878479004,0.004159999847412109,52.2430611,6.854539
10:37:22.578,16.45199966430664,1.2060700449943542,52.24309686,6.85456915
10:37:23.574,16.847999572753906,5.867349874019623,52.24313317,6.85460274
10:37:24.580,16.739999771118164,10.549899970054627,52.24316974,6.85463559
10:37:25.568,17.100000381469727,15.242899970054626,52.24320781,6.85466936
10:37:26.574,16.847999572753906,19.955659797191622,52.24324298,6.85470666
10:37:27.568,16.091999053955078,24.39436958885193,52.24327716,6.85474041
10:37:28.573,15.01200008392334,28.585219665527347,52.24330889,6.85477193
10:37:29.587,13.46399974822998,32.3775796751976,52.24333706,6.85480089
10:37:30.569,12.131999969482422,35.690289562702176,52.24335518,6.85483883
10:37:31.573,8.928000450134277,38.177729581832885,52.24335451,6.85487689
10:37:32.581,9.288000106811523,40.77836950492859,52.2433426,6.85491375
10:37:33.562,9.899999618530273,43.47886950492859,52.2433312,6.85495437
