10:52:39.427,16.775999069213867,0.00465999984741211,52.24304373,6.85459063
10:52:39.578,17.172000885009766,0.7344699969291686,52.24308406,6.85464158
10:52:40.583,17.459999084472656,5.599019901275635,52.24312684,6.85468369
10:52:41.576,17.172000885009766,10.34039988231659,52.24316941,6.85471994
10:52:42.570,16.631999969482422,14.932679768562316,52.24320975,6.8547545
10:52:43.589,16.091999053955078,19.48760955476761,52.24324814,6.85478411
10:52:44.575,15.624000549316406,23.76684970521927,52.24328238,6.85481438
10:52:45.577,14.904000282287598,27.915129571437834,52.24331415,6.85484326
10:52:46.583,13.644000053405762,31.72786953306198,52.24333709,6.85488046
10:52:47.580,11.736000061035156,34.98460952353477,52.24333583,6.85492692
10:52:48.573,10.008000373840332,37.73680949521064,52.24332329,6.85496686
