13:42:24.210,17.243999481201172,0.004789999961853027,52.24360984,6.85516176
13:42:24.591,17.100000381469727,1.819289999961853,52.24357134,6.85512608
13:42:25.590,17.74799919128418,6.749289828300476,52.24353092,6.85509231
13:42:26.600,18.360000610351562,11.895189732074737,52.24347701,6.85508094
13:42:27.598,18.827999114990234,17.114729751110076,52.24343425,6.85504729
13:42:28.594,18.719999313354492,22.288729561328886,52.24340088,6.85499662
13:42:29.598,18.756000518798828,27.524779599666594,52.24336776,6.85495136
13:42:30.595,19.224000930786133,32.84875975179672,52.24332615,6.85491218
13:42:31.599,19.763999938964844,38.36071952199936,52.24328078,6.85487428
13:42:32.590,19.763999938964844,43.806799294948576,52.24323622,6.85483394
13:42:33.609,19.691999435424805,49.37525908136367,52.24319241,6.85478648
