13:51:49.211,12.779999732971191,0.007099999904632569,52.24369044,6.85522616
13:51:49.602,12.383999824523926,1.3487000222206116,52.24365308,6.85522039
13:51:50.578,13.392000198364258,4.983140050172805,52.24361399,6.85520856
13:51:51.600,13.392000198364258,8.78498007941246,52.2435765,6.85519695
13:51:52.594,19.583999633789062,14.186900136232374,52.24352182,6.85509766
13:51:53.591,19.871999740600586,19.695860117197036,52.24347485,6.85505752
13:51:54.612,20.628000259399414,25.55192013669014,52.24342584,6.85501629
13:51:55.592,20.052000045776367,31.00495030474663,52.24337957,6.85497934
13:51:56.603,16.380001068115234,35.605000497579574,52.2433413,6.85495017
13:51:57.605,12.383999824523926,39.051880554914476,52.2433197,6.85496565
13:51:58.594,12.168000221252441,42.39470066809655,52.24330523,6.85499973
