13:45:02.723,11.232000350952148,0.0031199998855590823,52.24357213,6.85511789
13:45:03.607,10.979999542236328,2.699319957733154,52.24354362,6.85511067
13:45:04.601,11.843999862670898,5.97615991973877,52.24351149,6.85510094
13:45:05.603,11.916000366210938,9.28615986251831,52.24348023,6.85508527
13:45:06.613,11.232000350952148,12.443599746704102,52.24345185,6.8550703
13:45:07.594,12.779999732971191,15.919049700021745,52.24341941,6.85504862
13:45:08.598,12.815999984741211,19.503969642400744,52.24338585,6.85502643
13:45:09.612,13.031999588012695,23.160169526815416,52.24335395,6.85499698
13:45:10.608,10.836000442504883,26.161139517307284,52.24332723,6.85498498
13:45:11.613,8.892000198364258,28.643489546060565,52.24331414,6.85499598
13:45:12.599,10.692000389099121,31.57190957427025,52.24330339,6.85502734
