13:30:15.745,12.744000434875488,0.0035399999618530276,52.24300152,6.85456084
13:30:16.619,13.104000091552734,3.1849000916481014,52.24302992,6.85459126
13:30:17.606,13.607999801635742,6.923320063352584,52.24306226,6.85461905
13:30:18.599,14.616000175476074,10.950840006589889,52.24309744,6.85464624
13:30:19.595,15.263998985290527,15.17387977862358,52.24313238,6.85467634
13:30:20.593,15.371999740600586,19.43533975958824,52.24316744,6.85470694
13:30:21.592,15.624000549316406,23.77099991202354,52.24320288,6.85473719
13:30:22.604,16.055999755859375,28.28005995059013,52.24323924,6.85476932
13:30:23.593,15.227999687194824,32.46352996945381,52.24327226,6.85480103
13:30:24.592,12.996000289916992,36.06991986465454,52.24330268,6.85482451
13:30:25.593,11.663999557495117,39.316399874210354,52.24331555,6.85486428
13:30:26.595,11.052000045776367,42.392539807319636,52.24330995,6.85490563
13:30:27.599,10.54800033569336,45.334259874343864,52.24329798,6.85494498
