15:47:23.340,9.144000053405762,0.005079999923706055,52.24362197,6.85513716
15:47:23.939,9.935999870300293,1.6555599942207337,52.24359682,6.85512453
15:47:24.955,9.972000122070312,4.469879974842072,52.24357191,6.85510689
15:47:25.938,12.347999572753906,7.845000040531159,52.24354271,6.8550846
15:47:26.945,11.34000015258789,11.02020013666153,52.24351595,6.85506696
15:47:27.959,12.815999984741211,14.630040078639984,52.24348665,6.8550466
15:47:28.938,12.131999969482422,17.929269966602327,52.24345778,6.85502617
15:47:29.942,12.239999771118164,21.33947006225586,52.24342808,6.85500671
15:47:30.938,12.527999877929688,24.812510081291197,52.24339765,6.85498516
15:47:31.947,13.284000396728516,28.5283401389122,52.24336574,6.85495722
15:47:32.939,13.5,32.2483401389122,52.24333447,6.85492941
15:47:33.951,13.571999549865723,36.06358011960983,52.24330292,6.85490556
15:47:34.945,13.175999641418457,39.70162020492553,52.24327174,6.85487536
15:47:35.940,13.5,43.440370204925536,52.24324216,6.85484597
15:47:36.939,14.003999710083008,47.318700309514995,52.2432109,6.85481805
15:47:37.943,13.53600025177002,51.0937402999401,52.2431802,6.85479021
