15:54:29.511,9.0,0.0025,52.24296003,6.85442489
15:54:29.943,10.4399995803833,1.252400041103363,52.24296552,6.85446495
15:54:30.936,11.628000259399414,4.463020060062409,52.24297996,6.85450636
15:54:31.949,12.204000473022461,7.900480166435242,52.24300205,6.85454361
15:54:32.943,12.131999969482422,11.243520052909851,52.24302573,6.85457683
15:54:33.939,14.868000030517578,15.365260167121887,52.24305914,6.85461155
15:54:34.948,16.775999069213867,20.057880013465883,52.24309889,6.85464735
15:54:35.938,17.459999084472656,24.859379919052127,52.24314032,6.85468498
15:54:36.951,18.18000030517578,29.975030112266545,52.24319291,6.85470636
15:54:37.952,18.395999908447266,35.09014024591446,52.24323408,6.85474478
15:54:38.949,19.799999237060547,40.57364024591446,52.24327978,6.85478622
15:54:39.954,18.719999313354492,45.799640054225925,52.24331826,6.85482732
15:54:40.938,14.724000930786133,49.82420020437241,52.24334933,6.85485388
15:54:41.947,12.67199993133545,53.375880185127265,52.24337532,6.85486582
15:54:42.942,12.02400016784668,56.69918009972573,52.24339677,6.85481598
15:54:43.951,12.923999786376953,60.317900013208394,52.24341377,6.85476751
15:54:44.949,13.031999588012695,63.93427989888192,52.24342878,6.85471813
