16:02:57.590,10.836000442504883,0.0060199999809265135,52.24379853,6.85528559
16:02:57.947,9.432000160217285,0.9413599591255187,52.24376784,6.85527151
16:02:58.944,11.736000061035156,4.191579949617386,52.24373647,6.85525138
16:02:59.949,13.067999839782715,7.8433600647449495,52.24370301,6.85522674
16:03:00.955,15.01200008392334,12.03838014149666,52.24366813,6.85519715
16:03:01.946,17.100000381469727,16.74088014149666,52.24362966,6.85516651
16:03:02.948,16.45199966430664,21.338300314188004,52.24359282,6.85513667
16:03:03.957,16.380001068115234,25.906500505685806,52.24355493,6.85510905
16:03:04.941,16.45199966430664,30.407950674772263,52.24351721,6.85508084
16:03:05.948,17.172000885009766,35.211340655565266,52.24348336,6.85504794
16:03:06.946,17.604000091552734,40.09156052231789,52.2434468,6.85501575
16:03:07.946,16.667999267578125,44.72619063687325,52.24341055,6.85498453
16:03:08.933,15.588000297546387,48.99557056164742,52.24337556,6.85495563
16:03:09.957,11.37600040435791,52.234570649623876,52.2433488,6.85494242
16:03:10.943,9.755999565124512,54.9012106871605,52.243331,6.85495803
16:03:11.959,11.880000114440918,58.25071063876153,52.24331627,6.85499444
16:03:12.952,11.736000061035156,61.49115062928201,52.2433013,6.85503224
