15:45:50.571,6.335999965667725,0.001759999990463257,52.24379077,6.85534656
15:45:50.941,4.067999839782715,0.41872999823093415,52.24378155,6.8553398
15:45:51.951,5.291999816894531,1.9049000271558763,52.24377182,6.85533387
15:45:52.952,2.447999954223633,2.585580034315586,52.24376365,6.85533146
15:45:53.957,7.380000114440918,4.647879986345767,52.24375362,6.85530779
15:45:54.952,11.015999794006348,7.69257992941141,52.24373597,6.85527185
15:45:55.934,9.612000465393066,10.31185000425577,52.24371761,6.85523928
15:45:56.960,10.800000190734863,13.39285000425577,52.24369711,6.85520824
15:45:57.959,12.815999984741211,16.942169947206974,52.24367134,6.85517241
15:45:58.938,14.112000465393066,20.779850021898746,52.24364004,6.85513568
15:45:59.956,10.907999992370605,23.864389992773532,52.24360981,6.85510878
15:46:00.957,12.996000289916992,27.48160988765955,52.24357425,6.85507821
15:46:01.927,12.491999626159668,30.84403991538286,52.24353567,6.85504554
15:46:02.940,10.836000442504883,33.89316990572214,52.2435016,6.85501617
15:46:03.937,11.447999954223633,37.06362997227907,52.24346556,6.85498577
15:46:04.936,11.37600040435791,40.22047005802393,52.24343207,6.85495937
15:46:05.942,10.656000137329102,43.19823009639978,52.24341857,6.85492588
15:46:06.950,11.484000205993652,46.413750154078,52.2434233,6.85488943
15:46:07.943,12.276000022888184,49.799880239307875,52.2434363,6.85484853
15:46:08.947,12.456000328063965,53.277180277645584,52.24345259,6.85480713
