16:03:45.128,12.67199993133545,0.003519999980926514,52.24297247,6.85450642
16:03:45.948,13.067999839782715,2.9801200938224794,52.24300504,6.85453792
16:03:46.935,12.564000129699707,6.428240103244782,52.24303305,6.85457345
16:03:47.947,14.14799976348877,10.401470170736314,52.24306378,6.85461014
16:03:48.958,15.300000190734863,14.698220170736313,52.24309924,6.85464102
16:03:49.945,15.01200008392334,18.814010246038436,52.24313459,6.85466896
16:03:50.942,16.200000762939453,23.300510246038435,52.24317282,6.85469435
16:03:51.966,16.128000259399414,27.888030265569686,52.24320908,6.85472383
16:03:52.944,16.128000259399414,32.27395028424263,52.24324246,6.85475626
16:03:53.952,15.408000946044922,36.57963049530983,52.24327454,6.85478936
16:03:54.957,15.803999900817871,40.995970360994335,52.24330838,6.85481954
16:03:55.936,14.184000015258789,44.880810417413706,52.24333935,6.85484809
16:03:56.967,10.54800033569336,47.88113048577308,52.24336115,6.85487163
16:03:57.953,8.531999588012695,50.21795037293433,52.24336702,6.85490378
16:03:58.937,9.468000411987305,52.8058704855442,52.24335852,6.85494463
16:03:59.959,9.935999870300293,55.62659047579765,52.24334674,6.85498528
