16:19:03.590,10.260000228881836,0.0028499999046325683,52.24356863,6.85516416
16:19:03.851,11.052000045776367,0.8071899824142456,52.24354733,6.85513856
16:19:04.838,11.015999794006348,3.8304699258804322,52.24352506,6.85511828
16:19:05.832,10.907999992370605,6.842289897441864,52.24350282,6.85509619
16:19:06.855,10.727999687194824,9.887849916934968,52.24348033,6.85507577
16:19:07.845,10.295999526977539,12.719249813079834,52.24346064,6.8550555
16:19:08.838,11.447999954223633,15.880169879436494,52.24343946,6.85503327
16:19:09.844,10.727999687194824,18.872089898586275,52.24341915,6.85501389
16:19:10.841,11.555999755859375,22.075669936656954,52.24339885,6.85498663
16:19:11.839,11.15999984741211,25.17256984138489,52.24337767,6.85496339
16:19:12.841,11.12399959564209,28.265659755468374,52.24335485,6.85494188
16:19:13.834,10.907999992370605,31.271419727087025,52.24333282,6.85491909
16:19:14.832,11.267999649047852,34.39515984129906,52.24330961,6.85489671
16:19:15.845,11.015999794006348,37.497999783277514,52.24328439,6.85487794
16:19:16.841,10.871999740600586,40.50591976428032,52.24326036,6.85485711
16:19:17.850,10.656000137329102,43.48959980273247,52.24323733,6.85483547
16:19:18.852,10.619999885559082,46.44549985051155,52.24321419,6.85481574
16:19:19.850,10.619999885559082,49.38664989805222,52.24319169,6.85479595
