16:29:04.434,18.576000213623047,0.005159999847412109,52.24356381,6.85512369
16:29:04.843,21.56399917602539,2.455069906234741,52.24351805,6.85507246
16:29:05.820,20.808000564575195,8.107910111427307,52.24347138,6.85502989
16:29:06.847,21.56399917602539,14.253649876594544,52.24342514,6.85498776
16:29:07.848,20.95199966430664,20.091110048770908,52.24337992,6.85494993
16:29:08.856,21.239999771118164,26.038310144901278,52.24333199,6.85491411
16:29:09.836,21.45599937438965,31.873150182247166,52.24328316,6.85487589
16:29:10.842,21.45599937438965,37.86891022062302,52.24323712,6.85482621
16:29:11.850,20.916000366210938,43.71958016300202,52.24319623,6.85478494
