16:20:00.998,15.083999633789062,0.004190000057220459,52.24300883,6.85436858
16:20:01.834,14.795999526977539,3.444260111808777,52.24298572,6.8544158
16:20:02.835,15.767999649047852,7.828640226364136,52.24297854,6.85447659
16:20:03.842,15.01200008392334,12.02783030319214,52.24299848,6.854528
16:20:04.831,15.01200008392334,16.156130378723145,52.2430277,6.85456747
16:20:05.843,16.091999053955078,20.675300166606903,52.24306366,6.85460039
16:20:06.852,16.488000869750977,25.291940089702607,52.24310127,6.85462927
16:20:07.831,16.488000869750977,29.780340014934538,52.24313803,6.85466161
16:20:08.842,15.947999000549316,34.259069841384886,52.2431722,6.85469457
16:20:09.848,16.01999855041504,38.74021964931488,52.24320639,6.85472745
16:20:10.843,15.65999984741211,43.06411955451966,52.24324115,6.85475929
16:20:11.841,15.515999794006348,47.3741194972992,52.24327456,6.85479279
16:20:12.841,15.156000137329102,51.57990953540802,52.24330507,6.85482556
16:20:13.840,14.112000465393066,55.495989611625674,52.24333386,6.85485572
16:20:14.838,13.895999908447266,59.34826950693131,52.24336723,6.85485155
16:20:15.831,13.715999603271484,63.131599450111395,52.24339279,6.85481578
16:20:16.835,13.607999801635742,66.92671942138672,52.24340965,6.85476944
16:20:17.833,12.960000038146973,70.5159193263054,52.24342615,6.85472595
