16:15:06.643,10.692000389099121,0.005940000057220459,52.24290127,6.85467906
16:15:06.840,10.619999885559082,0.5870900094509125,52.24289459,6.85464034
16:15:07.841,10.583999633789062,3.530030066728592,52.24289606,6.85459855
16:15:08.831,10.979999542236328,6.549530019521713,52.24290765,6.85456023
16:15:09.840,10.692000389099121,9.549230048418044,52.24293029,6.85453511
16:15:10.840,10.51200008392334,12.46923012471199,52.24295689,6.85452699
16:15:11.863,9.755999565124512,15.238850163698196,52.24298217,6.85453243
16:15:12.841,10.727999687194824,18.153290182352066,52.24300863,6.85454572
16:15:13.839,11.15999984741211,21.253290086984634,52.2430355,6.85456185
16:15:14.841,11.592000007629395,24.473290115594864,52.2430634,6.8545805
16:15:15.829,11.37600040435791,27.598530200481413,52.24309086,6.85459978
16:15:16.846,11.052000045776367,30.72379013252258,52.24311595,6.85462461
16:15:17.857,11.34000015258789,33.90214022874832,52.24314029,6.85465157
16:15:18.829,10.979999542236328,36.86979018235207,52.24316432,6.85467784
16:15:19.836,10.763999938964844,39.877730191946036,52.24318822,6.85470318
16:15:20.842,11.12399959564209,42.9924501054287,52.24321185,6.85472985
16:15:21.851,11.015999794006348,46.07693004775048,52.24323634,6.8547574
16:15:22.837,11.15999984741211,49.14902995324135,52.24326048,6.85478413
16:15:23.848,11.484000205993652,52.35817001080513,52.24328616,6.85480971
16:15:24.836,10.979999542236328,55.368519963741306,52.24331178,6.85483281
16:15:25.830,10.944000244140625,58.39635992574692,52.24333576,6.85485426
16:15:26.838,9.935999870300293,61.172919916152956,52.24335186,6.85488695
16:15:27.840,9.612000465393066,63.845589992523195,52.2433536,6.85492855
16:15:28.839,8.496000289916992,66.20794988751412,52.24334733,6.85496584
16:15:29.833,9.612000465393066,68.8619299633503,52.24333877,6.85500395
16:15:30.839,9.359999656677246,71.47492986750603,52.24332747,6.85504084
