17:11:43.544,16.775999069213867,0.00931999969482422,52.24302616,6.85455632
17:11:43.864,13.211999893188477,1.1837200241088865,52.24305336,6.85458646
17:11:44.839,14.076000213623047,4.9959701077938075,52.24308113,6.85461545
17:11:45.845,14.14799976348877,8.941690174818039,52.24311061,6.85464543
17:11:46.836,14.399999618530273,12.909690174818039,52.24314211,6.85467205
17:11:47.829,14.831999778747559,17.000850061178205,52.24317405,6.85469961
17:11:48.829,14.904000282287598,21.1408499276638,52.24320549,6.8547319
17:11:49.840,14.975998878479004,25.346609773397443,52.24323764,6.85476376
17:11:50.828,15.300000190734863,29.545609773397445,52.24327116,6.85479567
17:11:51.841,15.01200008392334,33.76564985060692,52.2433045,6.85482643
17:11:52.825,14.724000930786133,37.79430000090599,52.24333798,6.85485525
17:11:53.845,14.9399995803833,42.0231500980854,52.24337099,6.85488354
17:11:54.835,13.895999908447266,45.84840999412536,52.24340161,6.85491181
17:11:55.835,14.724000930786133,49.94250014686584,52.24343231,6.85494416
17:11:56.836,14.795999526977539,54.052500280380244,52.24346379,6.85497748
17:11:57.836,14.616000175476074,58.11656022310257,52.24349648,6.85500507
17:11:58.828,14.687999725341797,62.15984014749527,52.24352886,6.85502999
17:11:59.836,14.65200138092041,66.26240032052993,52.24356087,6.85505942
