14:26:55.185,14.184000015258789,0.003940000057220459,52.24366163,6.85522895
14:26:55.602,14.43600082397461,1.676110095500946,52.24362694,6.855207
14:26:56.585,15.911999702453613,6.020970170497894,52.24359003,6.85518279
14:26:57.592,17.639999389648438,10.9552702665329,52.24355133,6.85515144
14:26:58.618,18.648000717163086,16.269950090408326,52.24351153,6.85512007
14:26:59.593,18.18000030517578,21.193700276374816,52.24347029,6.85509052
14:27:00.610,15.552000999450684,25.587140450954436,52.24343692,6.85507103
14:27:01.600,18.719999313354492,30.735140262126922,52.24339042,6.85502832
14:27:02.597,18.61199951171875,35.889630338191985,52.24334618,6.85499516
14:27:03.612,18.540000915527344,41.11688043498993,52.24330433,6.854958
14:27:04.619,19.47599983215332,46.56475028133393,52.243266,6.85490529
14:27:05.619,20.304000854492188,52.204750147819524,52.24323461,6.854843
14:27:06.612,19.6200008392334,57.616599958419805,52.24319092,6.85480056
14:27:07.606,19.836000442504883,63.09354018592835,52.24314922,6.85475991
14:27:08.597,20.016000747680664,68.6201801290512,52.24310983,6.85470679
