14:14:28.065,10.4399995803833,0.0029000000953674316,52.24359444,6.85517139
14:14:28.609,11.34000015258789,1.7228000521659852,52.24356892,6.85514614
14:14:29.593,10.871999740600586,4.691460033416748,52.24354324,6.85512645
14:14:30.596,11.34000015258789,7.850910129070282,52.24351812,6.85510518
14:14:31.594,11.196000099182129,10.954690024375916,52.24349346,6.85508525
14:14:32.627,11.37600040435791,14.218970113039017,52.24346711,6.85506535
14:14:33.598,11.15999984741211,17.22907002043724,52.24344096,6.85504617
14:14:34.610,11.12399959564209,20.356149933576585,52.24341621,6.85502645
14:14:35.595,11.12399959564209,23.399799849033357,52.243392,6.8550021
14:14:36.611,10.763999938964844,26.43464985871315,52.24336981,6.85497862
14:14:37.595,11.267999649047852,29.517699971437455,52.24334543,6.85495594
14:14:38.598,11.052000045776367,32.59690990447998,52.24332272,6.85493126
14:14:39.606,11.34000015258789,35.77526000070572,52.24329738,6.85490856
14:14:40.591,10.944000244140625,38.7666199631691,52.24327311,6.85488498
14:14:41.600,11.628000259399414,42.022459982395176,52.24324679,6.85485704
14:14:42.591,11.843999862670898,45.282849944591526,52.24322036,6.8548301
14:14:43.600,11.34000015258789,48.464350040912635,52.24319625,6.85480393
14:14:44.597,11.772000312805176,51.721270021915444,52.2431694,6.8547789
14:14:45.617,11.628000259399414,55.012640041351325,52.243143,6.85475091
