14:15:03.607,11.015999794006348,0.0,52.24313076,6.85467421
14:15:04.595,10.763999938964844,2.954120009422302,52.24315474,6.85469641
14:15:05.600,11.15999984741211,6.069619913578034,52.24317864,6.85471894
14:15:06.590,11.052000045776367,9.108919847488403,52.24320181,6.85474121
14:15:07.617,10.836000442504883,12.200189837694168,52.24322432,6.85476292
14:15:08.597,10.836000442504883,15.14998982834816,52.24324561,6.85478798
14:15:09.597,11.015999794006348,18.209989771127702,52.24326757,6.85481189
14:15:10.631,10.800000190734863,21.311989771127703,52.24328976,6.8548367
14:15:11.593,11.196000099182129,24.300699670314792,52.24331282,6.85486132
14:15:12.619,10.260000228881836,27.22479957246781,52.24333386,6.85488264
14:15:13.606,10.583999633789062,30.123639628887183,52.24335652,6.85490212
14:15:14.608,11.880000114440918,33.443439580917364,52.24338251,6.85492581
14:15:15.610,10.907999992370605,36.467379552364356,52.24340664,6.85494681
14:15:16.611,11.267999649047852,39.60363966703416,52.24343043,6.85496955
14:15:17.600,11.052000045776367,42.639869601011284,52.24345397,6.85499263
14:15:18.623,11.15999984741211,45.8111695034504,52.24347736,6.85501439
14:15:19.605,10.871999740600586,48.77680948472024,52.24349866,6.85503516
14:15:20.589,10.656000137329102,51.68944952225686,52.2435205,6.85505314
14:15:21.603,11.015999794006348,54.79228946423531,52.24354364,6.85507585
14:15:22.594,11.303999900817871,57.90088956809044,52.24356721,6.85510421
