11:49:13.133,15.119998931884766,0.004199999809265137,52.24358851,6.85511214
11:49:13.577,15.696000099182129,1.9400400590896607,52.24355438,6.85508313
11:49:14.586,15.65999984741211,6.333539962768555,52.24351961,6.85505449
11:49:15.587,16.01999855041504,10.796889771461487,52.24348312,6.85502648
11:49:16.583,16.739999771118164,15.423639866352081,52.24344347,6.85499905
11:49:17.581,16.739999771118164,20.05968996143341,52.24340604,6.85496816
11:49:18.579,17.243999481201172,24.840109923362732,52.24336891,6.85493211
11:49:19.576,17.531999588012695,29.695499809265137,52.24333144,6.85489414
11:49:20.574,17.81999969482422,34.650449618339536,52.24329265,6.85485612
11:49:21.593,17.711999893188477,39.649169695854184,52.24325436,6.85481739
11:49:22.588,17.92799949645996,44.6042697148323,52.24321413,6.85478132
