11:37:26.476,11.555999755859375,0.0032100000381469727,52.24309892,6.85465837
11:37:26.571,11.916000366210938,0.32096999454498293,52.24312564,6.85468057
11:37:27.572,12.456000328063965,3.784430032730103,52.24315451,6.85470096
11:37:28.571,13.211999893188477,7.450760108947755,52.24318275,6.85472733
11:37:29.581,13.895999908447266,11.349360002994539,52.24321288,6.85475547
11:37:30.593,14.076000213623047,15.306280089855196,52.24324375,6.85478301
11:37:31.574,14.868000030517578,19.357810202121737,52.24327584,6.85481222
11:37:32.581,14.472000122070312,23.405950182914737,52.2433062,6.85484223
11:37:33.586,13.824000358581543,27.265150096654896,52.24334002,6.85485679
11:37:34.572,12.527999877929688,30.696430115461354,52.24336893,6.85483132
11:37:35.580,13.355999946594238,34.4361101539135,52.24339346,6.8547877
