11:06:12.209,14.220000267028809,0.007900000095367432,52.24325427,6.85477231
11:06:12.888,14.795999526977539,2.7985900907516483,52.24328664,6.85480281
11:06:13.889,14.795999526977539,6.916810224533082,52.2433192,6.85483552
11:06:14.890,14.975998878479004,11.076810071945191,52.24335314,6.85486731
11:06:15.876,14.760000228881836,15.119409977912904,52.24338564,6.85490106
11:06:16.888,15.01200008392334,19.347790055274963,52.24341908,6.85493306
11:06:17.877,14.975998878479004,23.453709904670717,52.24345207,6.85496813
11:06:18.875,15.01200008392334,27.615369980812076,52.24348391,6.85500419
