11:18:21.428,19.440000534057617,0.005400000095367432,52.2431973,6.85469845
11:18:21.880,19.079999923706055,2.401000086307526,52.24323724,6.85473395
11:18:22.883,19.04400062561035,7.706870048046113,52.2432796,6.85477482
11:18:23.889,19.260000228881836,13.09431995201111,52.24331721,6.85481779
11:18:24.874,19.007999420166016,18.289840158462525,52.24335855,6.8548582
11:18:25.877,17.243999481201172,23.099000120162962,52.24339902,6.85486722
11:18:26.876,16.055999755859375,27.554540158271788,52.24344037,6.85484038
