11:18:44.804,18.61199951171875,0.005170000076293945,52.24358302,6.85507647
11:18:44.879,20.555999755859375,0.43913000297546384,52.24353819,6.85503241
11:18:45.878,20.916000366210938,6.2433199458122255,52.24349201,6.85499018
11:18:46.886,20.95199966430664,12.104060118675232,52.24344611,6.85494624
11:18:47.887,18.468000411987305,17.23919023323059,52.24340211,6.8549323
11:18:48.889,14.255999565124512,21.211070271492005,52.24336928,6.85494697
