16:38:21.159,19.47599983215332,0.01081999969482422,52.24308958,6.85459066
16:38:21.759,19.007999420166016,3.178820125579834,52.24313031,6.85462234
16:38:22.755,19.54800033569336,8.587099954605103,52.24317053,6.85466231
16:38:23.743,19.260000228881836,13.87289986038208,52.24320914,6.85470399
16:38:24.748,19.836000442504883,19.404940090179444,52.24324885,6.85474874
16:38:25.753,19.47599983215332,24.85280993652344,52.24329085,6.85478978
16:38:26.760,18.215999603271484,29.943169878959658,52.24333579,6.85482808
16:38:27.751,15.911999702453613,34.323389954566956,52.24337783,6.85481574
16:38:28.763,16.559999465942383,38.97398985815048,52.24340272,6.85475572
