16:35:18.959,15.3360013961792,0.004260000228881836,52.24358677,6.85509741
16:35:19.770,16.631999969482422,3.7556999073028567,52.24355217,6.85505988
16:35:20.752,16.091999053955078,8.140769701480867,52.24351738,6.85502481
16:35:21.746,16.055999755859375,12.574009739398956,52.24348409,6.85499261
16:35:22.757,16.236000061035156,17.129109970569612,52.24344971,6.85496126
16:35:23.745,16.055999755859375,21.540050008296966,52.2434139,6.85493418
16:35:24.771,15.191999435424805,25.869769793033598,52.24338018,6.85491101
16:35:25.729,12.779999732971191,29.2706697473526,52.24336338,6.85487087
16:35:26.759,12.564000129699707,32.86536975717544,52.24337216,6.85482001
16:35:27.759,14.543999671936035,36.90536971902847,52.24339148,6.85476429
