16:39:25.050,17.20800018310547,0.0095600004196167,52.24306335,6.85453777
16:39:25.750,17.856000900268555,3.481560027122498,52.24310302,6.85456998
16:39:26.749,18.0,8.476560027122499,52.2431396,6.85462274
16:39:27.756,18.503999710083008,13.647399892807009,52.2431807,6.85466256
16:39:28.748,18.68400001525879,18.806259949684147,52.24321961,6.85470494
16:39:29.742,19.152000427246094,24.089020120143893,52.24326151,6.85474291
16:39:30.765,18.25200080871582,29.27563029575348,52.24330181,6.85478319
16:39:31.750,17.100000381469727,33.94963029575348,52.24333501,6.85482273
16:39:32.765,14.14799976348877,37.9425103635788,52.24334276,6.8548826
16:39:33.745,12.960000038146973,41.470510270118716,52.2433427,6.85493521
