16:05:10.284,15.552000999450684,0.004320000171661377,52.24379559,6.85517464
16:05:10.714,21.059999465942383,2.5256699590682983,52.2436591,6.85510168
16:05:11.720,23.219999313354492,9.00791976737976,52.24359247,6.85506723
16:05:12.752,22.788000106811523,15.546809688568114,52.24352558,6.85503768
16:05:13.729,21.45599937438965,21.36376972579956,52.24347638,6.85498941
16:05:14.715,21.384000778198242,27.220609782218933,52.24342799,6.85495041
16:05:15.725,21.312000274658203,33.20572985935211,52.24337393,6.85491859
16:05:16.730,21.02400016784668,39.07493001270294,52.24332483,6.85486966
