15:49:33.361,8.711999893188477,0.004840000152587891,52.24365966,6.85527019
15:49:33.715,10.51200008392334,1.0356000270843506,52.24363727,6.8552496
15:49:34.711,11.807999610900879,4.305759998559952,52.2436137,6.8552209
15:49:35.728,12.02400016784668,7.699199911355972,52.24358784,6.85519505
15:49:36.744,12.0600004196167,11.106149814367296,52.24356001,6.85516933
15:49:37.748,12.095999717712402,14.479589709043504,52.24353196,6.8551456
15:49:38.739,12.131999969482422,17.815889595746995,52.24350452,6.8551174
15:49:39.735,11.98799991607666,21.132569519758224,52.24347799,6.85508812
15:49:40.724,11.843999862670898,24.389669481992723,52.24345197,6.85505928
15:49:41.730,11.447999954223633,27.58556954908371,52.24342744,6.85502857
15:49:42.726,11.34000015258789,30.726119644165042,52.24340231,6.85500065
15:49:43.725,10.944000244140625,33.76003960609437,52.24337815,6.85497268
15:49:44.735,10.656000137329102,36.74963964462281,52.24335485,6.85494459
15:49:45.738,11.303999900817871,39.8990597498417,52.24333073,6.85491427
15:49:46.755,11.411999702453613,43.12611982750894,52.2433058,6.85488388
