15:56:56.319,15.01200008392334,0.004170000076293945,52.24303746,6.85456921
15:56:56.715,15.624000549316406,1.7228100605010985,52.24306802,6.85460884
15:56:57.725,15.588000297546387,6.096109983444213,52.24310095,6.85464439
15:56:58.734,15.263998985290527,10.374269752502443,52.24313444,6.85467799
15:56:59.743,15.371999740600586,14.682699733257294,52.2431688,6.85470889
15:57:00.750,15.444000244140625,19.002729694843293,52.24320297,6.8547402
15:57:01.732,15.408000946044922,23.201409900665283,52.24323641,6.85477078
15:57:02.732,15.515999794006348,27.515719843387604,52.24327052,6.85480091
15:57:03.730,15.119998931884766,31.70731965303421,52.24330405,6.85483176
15:57:04.712,15.047999382019043,35.807899484634405,52.24333736,6.85486083
15:57:05.720,15.227999687194824,40.075969503879556,52.2433716,6.85489028
15:57:06.710,14.904000282287598,44.174569371700294,52.2434048,6.85491907
15:57:07.713,14.904000282287598,48.32698923778535,52.24343761,6.85494746
15:57:08.715,14.724000930786133,52.421079390525826,52.24346974,6.8549771
15:57:09.711,14.724000930786133,56.49471954250336,52.24350121,6.85500916
