16:05:33.921,21.131999969482422,0.0058699998855590825,52.24311397,6.8545924
16:05:34.735,20.663999557495117,4.683969813346863,52.24315922,6.85463676
16:05:35.732,20.483999252319336,10.356899870395662,52.24319731,6.8546927
16:05:36.713,20.34000015258789,15.893899963855745,52.24324138,6.85473055
16:05:37.723,19.72800064086914,21.43417998313904,52.24328381,6.85477652
16:05:38.728,19.260000228881836,26.81092988729477,52.24332496,6.85481648
16:05:39.749,19.079999923706055,32.21693008184433,52.24336486,6.8548597
16:05:40.732,18.79199981689453,37.34818987560273,52.24340889,6.85489525
16:05:41.721,18.07200050354004,42.31296985673905,52.24345238,6.85492825
16:05:42.726,17.496000289916992,47.19726999092103,52.24348699,6.85496432
