15:55:53.666,16.380001068115234,0.004550000190734863,52.24366172,6.85524004
15:55:53.704,15.875999450683594,0.17653999423980712,52.24362443,6.85521263
15:55:54.721,16.128000259399414,4.732700013637543,52.24358816,6.85518364
15:55:55.735,15.84000015258789,9.19430011034012,52.24355214,6.85515566
15:55:56.745,15.696000099182129,13.597900245189667,52.24351637,6.85512932
15:55:57.734,14.831999778747559,17.66846013212204,52.24348154,6.85510434
15:55:58.719,14.399999618530273,21.60846013212204,52.24344812,6.85508043
15:55:59.736,14.760000228881836,25.77816003513336,52.24341345,6.85505614
15:56:00.745,14.003999710083008,29.703170140981673,52.24338156,6.85502535
15:56:01.745,10.295999526977539,32.563170036077494,52.24337398,6.85497313
15:56:02.745,12.131999969482422,35.933169921636576,52.24339409,6.85491761
15:56:03.732,12.564000129699707,39.37779993104934,52.24341893,6.85485955
