16:02:53.972,19.511999130249023,0.0054200000762939455,52.24310692,6.8545904
16:02:54.732,19.368000030517578,4.08884008693695,52.24314637,6.85462774
16:02:55.729,19.007999420166016,9.358280296325683,52.24318589,6.85467015
16:02:56.749,19.115999221801758,14.774480237960816,52.24322866,6.8547093
16:02:57.735,18.107999801635742,19.72903044462204,52.24326791,6.85474528
16:02:58.711,18.107999801635742,24.6433406496048,52.24330428,6.85478173
16:02:59.732,19.079999923706055,30.054640844345094,52.24334498,6.85482576
16:03:00.713,17.31599998474121,34.76844078826905,52.2433794,6.85486629
16:03:01.720,14.220000267028809,38.74609083628655,52.24339922,6.85491998
16:03:02.724,13.319999694824219,42.47199088430405,52.24338484,6.85497388
16:03:03.729,12.527999877929688,45.95895090341568,52.24336913,6.85502036
