14:35:32.175,14.975998878479004,0.008319999694824219,52.24379133,6.85528967
14:35:32.943,24.1200008392334,5.153919853210449,52.24373871,6.85521294
14:35:33.948,17.027999877929688,9.902839872360229,52.24369754,6.855209
14:35:34.945,17.496000289916992,14.753120005607604,52.24366174,6.85517188
14:35:35.954,17.92799949645996,19.77296002483368,52.24362349,6.85513806
14:35:36.949,17.676000595092773,24.65840987300873,52.24358429,6.85510509
14:35:37.949,18.323999404907227,29.753500025749208,52.24354002,6.85507957
14:35:38.933,18.719999313354492,34.87549983787537,52.24349709,6.85503978
14:35:39.935,19.871999740600586,40.39549981880188,52.24345303,6.85500351
14:35:40.930,18.86400032043457,45.61453959083557,52.24341532,6.85495024
14:35:41.939,18.648000717163086,50.84115941762924,52.24337515,6.85491551
14:35:42.939,14.904000282287598,54.99771928358078,52.24334356,6.85493539
14:35:43.946,15.119998931884766,59.20611909246445,52.24332472,6.8549779
