14:16:39.961,17.13599967956543,0.004760000228881836,52.24377188,6.85524538
14:16:40.922,11.807999610900879,3.1568399727344514,52.24374525,6.85522165
14:16:41.943,14.724000930786133,7.332730128526688,52.24371475,6.855196
14:16:42.933,14.760000228881836,11.39173003411293,52.24368285,6.85516999
14:16:43.937,15.263998985290527,15.652929804086686,52.24364855,6.85514691
14:16:44.939,15.984000205993652,20.097369861364363,52.24361282,6.85512055
14:16:45.944,16.236000061035156,24.625410091161726,52.24357663,6.85509101
14:16:46.937,16.091999053955078,29.064119882822034,52.24353839,6.85506439
14:16:47.930,16.055999755859375,33.51073992085457,52.24350106,6.85503923
14:16:48.945,15.84000015258789,37.95474001717567,52.24346405,6.85501141
14:16:49.942,16.200000762939453,42.44124001717567,52.2434262,6.8549792
14:16:50.932,16.27199935913086,46.920559998273845,52.24339001,6.85494341
14:16:51.949,15.263998985290527,51.23263976550102,52.24335301,6.85494233
14:16:52.948,18.360000610351562,56.32753967022896,52.24332729,6.85498458
