14:18:06.306,9.612000465393066,0.00534000015258789,52.24380696,6.85528789
14:18:06.968,13.53600025177002,2.490699993848801,52.24378208,6.85526052
14:18:07.930,12.131999969482422,5.739379883527755,52.24375333,6.85523757
14:18:08.935,14.291999816894531,9.725259912252426,52.24372164,6.85521074
14:18:09.936,16.128000259399414,14.21421993136406,52.24368747,6.85517953
14:18:10.956,15.480001449584961,18.595920125722884,52.24365293,6.85515269
14:18:11.939,16.055999755859375,22.98010016322136,52.24361859,6.85512418
14:18:12.936,15.947999000549316,27.392379992246628,52.24358491,6.85509085
14:18:13.937,15.65999984741211,31.75107989668846,52.24355093,6.85505805
14:18:14.933,15.803999900817871,36.1279097635746,52.24351584,6.85502323
14:18:15.942,15.984000205993652,40.603429821252824,52.24347947,6.85498993
14:18:16.944,15.84000015258789,45.01222991681099,52.24344494,6.85495683
14:18:17.939,15.047999382019043,49.1796897456646,52.24341127,6.85492797
14:18:18.933,14.868000030517578,53.272519859075544,52.24338412,6.85488774
14:18:19.946,13.859999656677246,57.176419762372966,52.24338693,6.85482833
14:18:20.937,14.184000015258789,61.080959819078444,52.24340069,6.8547718
14:18:21.938,14.003999710083008,64.97484992408752,52.24341617,6.85471752
