10:15:22.309,11.015999794006348,0.006119999885559082,52.24301761,6.85455992
10:15:23.149,13.031999588012695,3.0505399036407472,52.2430444,6.85459441
10:15:24.128,14.543999671936035,7.009739866256714,52.24307431,6.85463051
10:15:25.143,15.3360013961792,11.32086009788513,52.24310851,6.85466696
10:15:26.140,15.3360013961792,15.572340326309202,52.24314193,6.8547048
10:15:27.132,15.947999000549316,19.96690015602112,52.2431762,6.85474449
10:15:28.140,16.45199966430664,24.57803032922745,52.24321356,6.85478206
10:15:29.144,17.027999877929688,29.322220348358158,52.24325383,6.85481674
10:15:30.142,16.59600067138672,33.923000481605534,52.24329153,6.85485157
10:15:31.125,16.59600067138672,38.454630612850195,52.2433369,6.85485586
10:15:32.143,16.59600067138672,43.14761074876786,52.24337662,6.85480709
10:15:33.132,16.95599937438965,47.80580078649522,52.24340815,6.85474481
