10:17:28.980,13.644000053405762,0.011369999885559083,52.24369578,6.8552329
10:17:29.172,13.571999549865723,0.7314399962425232,52.2436603,6.85521473
10:17:30.131,15.371999740600586,4.82636997795105,52.2436234,6.85518979
10:17:31.144,16.091999053955078,9.358949765205384,52.24358539,6.85516009
10:17:32.126,16.812000274658203,13.940219840049744,52.24354857,6.85512395
10:17:33.128,16.70400047302246,18.594139706134797,52.24351216,6.8550916
10:17:34.142,16.992000579833984,23.375499493598937,52.24347297,6.85505923
10:17:35.141,17.027999877929688,28.10076951265335,52.24343393,6.85502907
10:17:36.126,16.95599937438965,32.74482955026627,52.24339625,6.85499716
10:17:37.148,16.667999267578125,37.467429666996004,52.24336966,6.8549432
10:17:38.146,15.480001449584961,41.763129857540136,52.24337165,6.85487227
10:17:39.131,16.055999755859375,46.156229895114905,52.24339191,6.85480418
