16:06:04.768,11.267999649047852,0.003130000114440918,52.24359087,6.85511125
16:06:05.100,11.37600040435791,1.0522500286102296,52.24356022,6.85509118
16:06:06.086,10.331999778747559,3.8849399156570437,52.24353354,6.85507262
16:06:07.114,11.555999755859375,7.188029954910278,52.24350509,6.85505314
16:06:08.102,11.843999862670898,10.435259917259216,52.24347788,6.85502969
16:06:09.103,12.383999824523926,13.878699974536897,52.24344917,6.85500629
16:06:10.097,12.491999626159668,17.327880002975466,52.24342005,6.85498493
16:06:11.109,11.98799991607666,20.694509925842286,52.24339231,6.85496366
16:06:12.105,12.63599967956543,24.193979916334154,52.24336237,6.85494096
16:06:13.111,12.347999572753906,27.647989983558656,52.24333346,6.85491668
16:06:14.098,12.527999877929688,31.079270002365114,52.24330462,6.85489249
16:06:15.111,12.815999984741211,34.68198994445801,52.24327601,6.8548666
16:06:16.092,12.960000038146973,38.21358985090256,52.24324618,6.85484193
16:06:17.111,12.456000328063965,41.74278988981247,52.24321796,6.85481765
16:06:18.110,12.527999877929688,45.21930990886688,52.24318984,6.85479331
