16:27:34.499,15.947999000549316,0.004429999828338623,52.24307455,6.85461105
16:27:35.107,15.947999000549316,2.706729895114899,52.24310813,6.85464011
16:27:36.094,15.84000015258789,7.045129989147187,52.24314064,6.85467087
16:27:37.096,17.027999877929688,11.779860008239748,52.24317491,6.85471245
16:27:38.097,16.01999855041504,16.238759817123416,52.24320635,6.85474211
16:27:39.096,16.52400016784668,20.81957996940613,52.24324324,6.85477729
16:27:40.093,16.091999053955078,25.276169760227205,52.24327918,6.85481028
16:27:41.096,14.14799976348877,29.21795982718468,52.24331024,6.85484394
16:27:42.095,12.239999771118164,32.61795992255211,52.24333748,6.85486698
16:27:43.100,13.175999641418457,36.296260008811956,52.24336065,6.85484543
