16:31:53.162,18.395999908447266,0.010220000267028809,52.24303069,6.85456289
16:31:54.112,18.540000915527344,4.913020091056824,52.24307053,6.85458852
16:31:55.106,18.288000106811523,9.95238001537323,52.24310828,6.85463197
16:31:56.113,18.756000518798828,15.21448005390167,52.24315297,6.85466538
16:31:57.107,17.676000595092773,20.08028990268707,52.24319122,6.85469143
16:31:58.108,18.576000213623047,25.24028975009918,52.24322895,6.85473057
16:31:59.118,18.648000717163086,30.477269576549528,52.24326995,6.85477033
16:32:00.096,17.496000289916992,35.230349707126614,52.24330222,6.85480561
16:32:01.103,14.003999710083008,39.14368981266021,52.24332807,6.85483424
16:32:02.111,11.052000045776367,42.23517974543571,52.24333494,6.85488052
16:32:03.110,11.98799991607666,45.56517966914176,52.24332119,6.85492617
